22 67 113
80 82 111
2 23 21
76 91 111
35 80 116
3 11 20
83 86 111
28 48 110
65 83 116
52 57 113
36 62 113
28 61 113
39 60 113
14 49 112
39 40 35
2 10 20
44 45 17
89 98 119
16 59 113
63 90 116
25 54 113
53 53 12
53 63 113
61 78 116
6 60 113
58 100 119
12 80 116
22 45 112
9 56 113
2 58 113
4 38 112
5 49 112
26 100 119
37 41 110
11 61 113
12 46 112
43 84 116
50 79 116
65 83 116
73 88 116
14 78 116
49 56 113
59 81 116
14 16 18
34 78 116
56 75 116
3 65 113
4 80 116
62 89 116
25 87 116
41 60 113
23 58 113
26 50 112
36 63 113
36 97 119
13 42 112
7 85 116
24 55 113
68 92 116
35 94 116
82 83 111
4 71 113
46 92 116
34 89 116
78 92 111
86 99 119
37 99 119
44 67 113
16 64 113
2 24 21
58 96 116
33 51 110
77 79 36
50 91 116
57 84 116
35 74 116
40 71 113
37 83 116
8 50 112
52 82 116
2 46 112
60 74 116
25 44 112
32 56 113
33 68 113
16 28 112
87 91 93
52 74 116
35 63 113
10 86 116
4 16 20
11 81 116
3 15 20
8 42 112
52 95 116
71 76 116
44 91 116
25 34 112
5 95 116
21 99 119
2 15 20
23 68 113
63 99 119
31 99 119
35 67 113
27 94 116
30 51 110
36 98 119
22 46 112
9 45 112
38 54 113
3 95 116
18 44 112
13 32 112
22 55 113
37 42 110
28 85 116
86 89 31
4 88 116
33 41 110
27 43 112
33 85 116
80 87 111
91 95 106
58 64 108
31 100 119
54 97 119
34 36 22
34 82 116
35 85 116
92 96 106
52 98 119
57 75 116
42 87 116
9 91 116
9 22 21
11 40 112
39 63 113
31 100 119
29 85 116
1 43 112
6 44 112
17 26 24
69 78 116
29 91 116
52 74 116
73 87 116
