.................
----------------------------------------------------------------------
Ran 17 tests in 0.036s

OK
Name             Stmts   Miss Branch BrPart  Cover   Missing
------------------------------------------------------------
Collatz.py          41      0     12      0   100%
TestCollatz.py      74      0      0      0   100%
------------------------------------------------------------
TOTAL              115      0     12      0   100%
