...................         
----------------------------------------------------------------------
Ran 19 tests in 0.626s

OK
Name             Stmts   Miss Branch BrPart  Cover   Missing
------------------------------------------------------------
Collatz.py          43      0     14      0   100%
TestCollatz.py     108      0      0      0   100%
------------------------------------------------------------
TOTAL              151      0     14      0   100%
